<?xml version="1.0" encoding="utf-8"?>
<!-- Generator: Adobe Illustrator 23.0.1, SVG Export Plug-In . SVG Version: 6.00 Build 0)  -->
<svg version="1.1" id="Capa_1" xmlns="http://www.w3.org/2000/svg" xmlns:xlink="http://www.w3.org/1999/xlink" x="0px" y="0px"
	 width="511px" height="511px" viewBox="0 0 511 511" style="enable-background:new 0 0 511 511;" xml:space="preserve">
<style type="text/css">
	.st0{fill:#6BC4C7;}
</style>
<path class="st0" d="M162.6,437.1h10.9V448c0,4.1,3.4,7.5,7.5,7.5c4.1,0,7.5-3.4,7.5-7.5v-10.9h10.9c4.1,0,7.5-3.4,7.5-7.5
	c0-4.1-3.4-7.5-7.5-7.5h-10.9v-10.9c0-4.1-3.4-7.5-7.5-7.5c-4.1,0-7.5,3.4-7.5,7.5v10.9h-10.9c-4.1,0-7.5,3.4-7.5,7.5
	C155.1,433.7,158.4,437.1,162.6,437.1z"/>
<path class="st0" d="M118.7,282.6c0,0-0.1,0-0.1,0.1c-1.7,0.7-40.7,17.3-40.7,62.9v145.9c0,10.8,8.8,19.5,19.5,19.5H414
	c10.8,0,19.5-8.8,19.5-19.5v-63.6c0-4.1-3.4-7.5-7.5-7.5s-7.5,3.4-7.5,7.5v63.6c0,2.5-2,4.5-4.5,4.5h-37.5V390.5
	c0-4.1-3.4-7.5-7.5-7.5c-4.1,0-7.5,3.4-7.5,7.5V496h-85.2L325,365c3.7-8.7-0.8-16.4-2.9-19.9l-11-21.1c0,0,0,0,0-0.1l13.9-12.4
	c4.4-4,6.8-9.7,6.5-15.6l-1.2-21.3l57,22.1c1.4,0.6,31.4,13.9,31.4,49v47.3c0,4.1,3.4,7.5,7.5,7.5s7.5-3.4,7.5-7.5v-47.3
	c0-45.6-39-62.2-40.7-62.9c0,0-0.1,0-0.1-0.1L300,246.7v-22c14.8-11.5,25-28.5,27.5-47.9c17.3-0.8,31.1-15.1,31.1-32.6
	c0-8.2-3-15.6-8-21.4V94.1c0-22.1-7.7-43.6-21.7-60.6c-13.8-16.8-33-28.5-54.1-33c-4.1-0.9-8,1.7-8.9,5.8c-0.9,4.1,1.7,8,5.8,8.9
	c37,7.8,63.9,41,63.9,78.9V113c-2.4-0.7-5.1-1.2-7.4-1.4c0-3.9-0.8-7.1-3.6-10.2c0,0,0,0,0,0l-20.7-22.2c-4.5-4.8-11.8-5.7-17.3-2.1
	c-27,17.6-60,26.5-90.4,24.3c0,0,0,0,0,0c-4-0.3-7.9,1.3-10.2,3.6c-1.8,1.7-3.3,4-3.9,6.6c-2.7,0.1-5.3,0.6-7.9,1.4V94.1
	c0-38.7,27.5-72,65.4-79.2c4.1-0.8,6.7-4.7,6-8.8s-4.7-6.7-8.8-6c-45,8.6-77.6,48.1-77.6,94v28.8c-5.1,5.9-8,13.4-8,21.4
	c0,17.5,13.8,31.8,31,32.6c2.6,20.1,13.3,37.6,29,49v20.8C158.4,267.2,223.9,241.9,118.7,282.6z M211.5,313.8l-15.1-13.6
	c-1-0.9-1.6-2.2-1.5-3.6l1.6-28.1l16.1-6.2c0,0,26.9,199,27.6,204.7l-40-107.5c-1-2.7-1.8,0.2,13.2-28.5
	C217.1,324.6,216.4,317.9,211.5,313.8z M244.8,294l-11.6,8.8l-3.6-26.6C233.5,280.7,236.5,284.2,244.8,294z M281.6,276.3l-3.6,26.4
	l-11.5-8.7L281.6,276.3z M235.5,319.9c0.8-0.6-0.9,0.7,20.1-15.3l20.1,15.3l-20.1,149L235.5,319.9z M92.9,491.5V345.6
	c0-35,29.5-48.2,31.4-49l56.9-22.1l-1.2,21.3c-0.3,6,2,11.7,6.5,15.6l13.9,12.4c0,0,0,0,0,0.1l-11.1,21.2c-2.4,4-6.6,11.2-2.9,19.9
	L235,496h-86.8V390.5c0-4.1-3.4-7.5-7.5-7.5s-7.5,3.4-7.5,7.5V496H97.4C94.9,496,92.9,494,92.9,491.5z M314.9,300.3l-15.2,13.6
	c-2,1.7-7.2,7.4-2,17.1c15.3,29.4,14.1,26.2,13.3,28.6l-40,107.6l27.6-204.8l16.1,6.3l1.6,28.1C316.4,298,315.9,299.3,314.9,300.3z
	 M328.1,161.8v-35c8.7,1.1,15.4,8.6,15.4,17.5C343.5,153.2,336.8,160.7,328.1,161.8z M166.2,144.3c0-9,6.7-16.4,15.4-17.5v35
	C172.9,160.7,166.2,153.2,166.2,144.3z M196.6,167.6c0-11,0-41.1,0-51.1c32.8,2,68-7.5,97-26.1l19.4,20.9v56.3c0,32-26.6,59-61,57.2
	C218.7,223,196.6,196.3,196.6,167.6z M255.8,239.9c10.2,0,20.3-2.2,29.2-6.2v15.4l-29.3,34.4l-29.4-34.4v-14.9
	C235.8,238.1,245.8,239.9,255.8,239.9z"/>
</svg>
